…
## Análisis

Separar palabras:

``` r
palabras <- tweets %>%
  unnest_tokens(palabra, text) %>%
  select(status_id, palabra)

conteo <- palabras %>%
  count(palabra, sort = T)
conteo
```

    ## # A tibble: 111 × 2
    ##    palabra     n
    ##    <chr>   <int>
    ##  1 bolivia     8
    ##  2 https       8
    ##  3 t.co        8
    ##  4 bitcoin     6
    ##  5 que         5
    ##  6 00          4
    ##  7 airbnb      4
    ##  8 el          3
    ##  9 en          3
    ## 10 es          3
    ## # … with 101 more rows
