…
    ## Rows: 1704 Columns: 6
    ## ── Column specification ──────────────────────────────────
    ## Delimiter: ","
    ## chr (2): country, continent
    ## dbl (4): year, lifeExp, pop, gdpPercap
    ## 
    ## ℹ Use `spec()` to retrieve the full column specification for this data.
    ## ℹ Specify the column types or set `show_col_types = FALSE` to quiet this message.

``` r
# Ver los datos
data
```

    ## # A tibble: 1,704 × 6
    ##    country     continent  year lifeExp      pop gdpPercap
    ##    <chr>       <chr>     <dbl>   <dbl>    <dbl>     <dbl>
    ##  1 Afghanistan Asia       1952    28.8  8425333      779.
    ##  2 Afghanistan Asia       1957    30.3  9240934      821.
    ##  3 Afghanistan Asia       1962    32.0 10267083      853.
    ##  4 Afghanistan Asia       1967    34.0 11537966      836.
    ##  5 Afghanistan Asia       1972    36.1 13079460      740.
    ##  6 Afghanistan Asia       1977    38.4 14880372      786.
    ##  7 Afghanistan Asia       1982    39.9 12881816      978.
    ##  8 Afghanistan Asia       1987    40.8 13867957      852.
    ##  9 Afghanistan Asia       1992    41.7 16317921      649.
    ## 10 Afghanistan Asia       1997    41.8 22227415      635.
    ## # … with 1,694 more rows
…
    ## # A tibble: 1 × 2
    ##   mediana_esp_1952 media_pib_1952
    ##              <dbl>          <dbl>
    ## 1             45.1          3725.

Ahora bien para calcular nuevas columnas y agregarlas al data frame,
usaremos `mutate()`. Por ejemplo, calculando la esperanza de vida en
meses:

``` r
data %>%
  mutate(lifeExpMes = lifeExp * 12)
```

    ## # A tibble: 1,704 × 7
    ##    country     continent  year lifeExp      pop gdpPercap
    ##    <chr>       <chr>     <dbl>   <dbl>    <dbl>     <dbl>
    ##  1 Afghanistan Asia       1952    28.8  8425333      779.
    ##  2 Afghanistan Asia       1957    30.3  9240934      821.
    ##  3 Afghanistan Asia       1962    32.0 10267083      853.
    ##  4 Afghanistan Asia       1967    34.0 11537966      836.
    ##  5 Afghanistan Asia       1972    36.1 13079460      740.
    ##  6 Afghanistan Asia       1977    38.4 14880372      786.
    ##  7 Afghanistan Asia       1982    39.9 12881816      978.
    ##  8 Afghanistan Asia       1987    40.8 13867957      852.
    ##  9 Afghanistan Asia       1992    41.7 16317921      649.
    ## 10 Afghanistan Asia       1997    41.8 22227415      635.
    ## # … with 1,694 more rows, and 1 more variable:
    ## #   lifeExpMes <dbl>

También podemos agregar varias columnas al mismo tiempo. Y si queremos
que los cambios se guarden en la tabla original, la debemos
sobreescribir:

``` r
data <- data %>%
  mutate(lifeExpMes = lifeExp * 12, popMillon = pop / 1000000)
data
```

    ## # A tibble: 1,704 × 8
    ##    country     continent  year lifeExp      pop gdpPercap
    ##    <chr>       <chr>     <dbl>   <dbl>    <dbl>     <dbl>
    ##  1 Afghanistan Asia       1952    28.8  8425333      779.
    ##  2 Afghanistan Asia       1957    30.3  9240934      821.
    ##  3 Afghanistan Asia       1962    32.0 10267083      853.
    ##  4 Afghanistan Asia       1967    34.0 11537966      836.
    ##  5 Afghanistan Asia       1972    36.1 13079460      740.
    ##  6 Afghanistan Asia       1977    38.4 14880372      786.
    ##  7 Afghanistan Asia       1982    39.9 12881816      978.
    ##  8 Afghanistan Asia       1987    40.8 13867957      852.
    ##  9 Afghanistan Asia       1992    41.7 16317921      649.
    ## 10 Afghanistan Asia       1997    41.8 22227415      635.
    ## # … with 1,694 more rows, and 2 more variables:
    ## #   lifeExpMes <dbl>, popMillon <dbl>
…
O agrupar por una combinación de variables, como continente y año, y que
nos permite comparar con más valores:

``` r
data %>%
  group_by(continent, year) %>%
  summarize(mediana_esp = median(lifeExp))
```

    ## `summarise()` has grouped output by 'continent'. You can
    ## override using the `.groups` argument.

    ## # A tibble: 60 × 3
    ## # Groups:   continent [5]
    ##    continent  year mediana_esp
    ##    <chr>     <dbl>       <dbl>
    ##  1 Africa     1952        38.8
    ##  2 Africa     1957        40.6
    ##  3 Africa     1962        42.6
    ##  4 Africa     1967        44.7
    ##  5 Africa     1972        47.0
    ##  6 Africa     1977        49.3
    ##  7 Africa     1982        50.8
    ##  8 Africa     1987        51.6
    ##  9 Africa     1992        52.4
    ## 10 Africa     1997        52.8
    ## # … with 50 more rows
…
